name,effects,addendum
Spellblade's Gloves,,+2% weapon skill magic damage
Alberich's Bracers,,+6% thorn sorcery damage
Briar Gauntlets,,+18 roll physical attack power
Royal Remains Gauntlets,,+2/s HP regen when HP less than 18%
Crucible Gauntlets,,+4% aspects of the crucible incantation damage
Omen Gauntlets,,+5% regal omen bairn damage
