name,effects,addendum
Black Dumpling,damage all percent 10,only when user suffers madness
Mushroom Crown,damage all percent 10,only when someone nearby suffers poison or rot
Karolos Glintstone Crown,attribute int add 3+base_stats stamina percent -9,
Olivinus Glintstone Crown,attribute int add 3+base_stats hp percent -9,
Twinsage Glintstone Crown,attribute int add 6+base_stats stamina percent -9+base_stats hp percent -9,
Witch's Glintstone Crown,attribute int add 3+attribute arc add 3+base_stats stamina percent -18,
Lazuli Glintstone Crown,attribute dex add 3+attribute int add 3+base_stats hp percent -18,
Haima Glintstone Crown,attribute str add 2+attribute int add 2+base_stats fp percent -9,
Hierodas Glintstone Crown,attribute end add 2+attribute int add 2+base_stats fp percent -9,
Preceptor's Big Hat,attribute min add 3+base_stats stamina percent -9,
Mask of Confidence,attribute arc add 3,
Queen's Crescent Crown,attribute int add 3,
Greathood,attribute int add 2+attribute fai add 2+base_stats hp percent -9,
Ruler's Mask,attribute fai add 1,
Consort's Mask,attribute dex add 1,
Marais Mask,attribute arc add 1,
Imp Head (Cat),attribute int add 2,
Imp Head (Wolf),attribute end add 2,
Imp Head (Fanged),attribute str add 2,
Imp Head (Long-Tongued),attribute dex add 2,
Imp Head (Corpse),attribute fai add 2,
Imp Head (Elder),attribute arc add 2,
Silver Tear Mask,attribute arc add 8+damage all percent -5,
Albinauric Mask,attribute arc add 4,-10% HP restored by flask
Crimson Hood,attribute vig add 1,
Navy Hood,attribute vig add 1,
White Mask,damage all percent 10,only when someone nearby suffers bleed
Omensmirk Mask,attribute str add 2,
Sacred Crown Helm,attribute fai add 1,
Haligtree Helm,attribute fai add 1,
Okina Mask,attribute dex add 3+resistance focus add -49,
Haligtree Knight Helm,attribute fai add 2,
Spellblade's Pointed Hat,,+2% weapon skill magic damage
Alberich's Pointed Hat,,+6% thorn sorcery damage
Alberich's Pointed Hat (Altered),,+6% thorn sorcery damage
Azur's Glintstone Crown,,+15% comet azur damage|+10% glintstone cometshard comet damage|+10% comet damage|+15% FP cost of spells
Lusat's Glintstone Crown,,+15% stars of ruin damage|+10% star shower damage|+10% glintstone stars damage|+15% FP cost of spells
Snow Witch Hat,,+10% cold sorcery damage
Radiant Gold Mask,,+10% golden order incantation damage
Shining Horned Headband,,+20% ancenstral infant's head damage
Crimson Tear Scarab,negation all inverse -10,+10% HP restored by flask
Cerulean Tear Scarab,negation all inverse -10,+10% FP restored by flask
Ash-of-War Scarab,negation all inverse -10,-15% FP cost of weapon skills
Glintstone Scarab,negation all inverse -10,-15% FP cost of sorceries
Incantation Scarab,negation all inverse -10,-15% FP cost of incantations
Envoy Crown,,+15% bubble-based weapon skill damage
Jar,,+15% throwing pot damage
Briar Helm,,+18 roll physical attack power
Royal Remains Helm,,+2/s HP regen when HP less than 18%
Crucible Axe Helm,,+4% aspects of the crucible incantation damage
Crucible Tree Helm,,+4% aspects of the crucible incantation damage
Omen Helm,,+5% regal omen bairn damage
